<?xml version="1.0" encoding="UTF-8" standalone="no"?>
<!-- Created with Inkscape (http://www.inkscape.org/) -->

<svg
   width="67.937309mm"
   height="107.06257mm"
   viewBox="0 0 67.937309 107.06257"
   version="1.1"
   id="svg5"
   inkscape:version="1.2.2 (b0a8486541, 2022-12-01)"
   sodipodi:docname="qmark.svg"
   xmlns:inkscape="http://www.inkscape.org/namespaces/inkscape"
   xmlns:sodipodi="http://sodipodi.sourceforge.net/DTD/sodipodi-0.dtd"
   xmlns="http://www.w3.org/2000/svg"
   xmlns:svg="http://www.w3.org/2000/svg">
  <sodipodi:namedview
     id="namedview7"
     pagecolor="#505050"
     bordercolor="#eeeeee"
     borderopacity="1"
     inkscape:showpageshadow="0"
     inkscape:pageopacity="0"
     inkscape:pagecheckerboard="0"
     inkscape:deskcolor="#505050"
     inkscape:document-units="mm"
     showgrid="false"
     inkscape:zoom="0.457453"
     inkscape:cx="-243.74089"
     inkscape:cy="204.39258"
     inkscape:window-width="2560"
     inkscape:window-height="1440"
     inkscape:window-x="0"
     inkscape:window-y="0"
     inkscape:window-maximized="1"
     inkscape:current-layer="layer1" />
  <defs
     id="defs2" />
  <g
     inkscape:label="Layer 1"
     inkscape:groupmode="layer"
     id="layer1"
     transform="translate(-48.324363,-95.769339)">
    <path
       id="path111"
       style="fill:none;stroke:#ffffff;stroke-width:10;stroke-linecap:square;stroke-linejoin:miter;stroke-miterlimit:3.8;stroke-dasharray:none"
       inkscape:transform-center-y="-1.7126635e-06"
       d="m 55.846636,115.6611 25.440365,-14.91712 30.481759,17.45599 -1.45182,32.07177 -31.933084,14.61582 -0.624862,13.46473"
       sodipodi:nodetypes="cccccc"
       transform="rotate(-2.657034,97.799147,129.67695)" />
    <path
       sodipodi:type="star"
       style="fill:#ffffff;fill-opacity:1;stroke:none;stroke-width:15;stroke-linecap:round;stroke-linejoin:miter;stroke-miterlimit:3.8;stroke-dasharray:none;stroke-opacity:1"
       id="path3740"
       inkscape:flatsided="true"
       sodipodi:sides="6"
       sodipodi:cx="104.5691"
       sodipodi:cy="361.78799"
       sodipodi:r1="25.337341"
       sodipodi:r2="21.942781"
       sodipodi:arg1="1.0619719"
       sodipodi:arg2="1.5855706"
       inkscape:rounded="0"
       inkscape:randomized="0"
       d="m 116.91221,383.91555 -25.334577,-0.37433 -12.34311,-22.12755 12.991467,-21.75323 25.33458,0.37433 12.34311,22.12755 z"
       transform="matrix(0.26455846,-0.00362738,0.00362738,0.26455846,51.277112,101.68789)"
       inkscape:transform-center-x="1.0984313e-06" />
  </g>
</svg>
